%YAML 1.1
%TAG !u! tag:unity3d.com,2011:
--- !u!1 &381186266
GameObject:
  m_ObjectHideFlags: 0
  m_CorrespondingSourceObject: {fileID: 0}
  m_PrefabInstance: {fileID: 0}
  m_PrefabAsset: {fileID: 0}
  serializedVersion: 6
  m_Component:
  - component: {fileID: 381186267}
  - component: {fileID: 381186268}
  m_Layer: 0
  m_Name: OverwrittingFog
  m_TagString: Untagged
  m_Icon: {fileID: 0}
  m_NavMeshLayer: 0
  m_StaticEditorFlags: 0
  m_IsActive: 1
--- !u!4 &381186267
Transform:
  m_ObjectHideFlags: 0
  m_CorrespondingSourceObject: {fileID: 0}
  m_PrefabInstance: {fileID: 0}
  m_PrefabAsset: {fileID: 0}
  m_GameObject: {fileID: 381186266}
  serializedVersion: 2
  m_LocalRotation: {x: -0, y: -0, z: -0, w: 1}
  m_LocalPosition: {x: -1.5, y: 0, z: 0}
  m_LocalScale: {x: 1, y: 1, z: 1}
  m_ConstrainProportionsScale: 0
  m_Children: []
  m_Father: {fileID: 434197847380694387}
  m_LocalEulerAnglesHint: {x: 0, y: 0, z: 0}
--- !u!114 &381186268
MonoBehaviour:
  m_ObjectHideFlags: 0
  m_CorrespondingSourceObject: {fileID: 0}
  m_PrefabInstance: {fileID: 0}
  m_PrefabAsset: {fileID: 0}
  m_GameObject: {fileID: 381186266}
  m_Enabled: 1
  m_EditorHideFlags: 0
  m_Script: {fileID: 11500000, guid: e1fbb15bf92b84f40a1eb030765b5afe, type: 3}
  m_Name: 
  m_EditorClassIdentifier: 
  parameters:
    albedo: {r: 1, g: 0.34159735, b: 0, a: 1}
    meanFreePath: 5
    blendingMode: 0
    priority: 0
    anisotropy: 0
    volumeMask: {fileID: 0}
    textureScrollingSpeed: {x: 0, y: 0, z: 0}
    textureTiling: {x: 1, y: 1, z: 1}
    positiveFade: {x: 0.05, y: 0.025, z: 0.05}
    negativeFade: {x: 0.05, y: 0.025, z: 0.05}
    m_EditorUniformFade: 0.1
    m_EditorPositiveFade: {x: 0.05, y: 0.025, z: 0.05}
    m_EditorNegativeFade: {x: 0.05, y: 0.025, z: 0.05}
    m_EditorAdvancedFade: 0
    size: {x: 2, y: 4, z: 2}
    invertFade: 0
    distanceFadeStart: 10000
    distanceFadeEnd: 10000
    textureOffset: {x: 0, y: 0, z: 0}
    falloffMode: 0
    maskMode: 0
    materialMask: {fileID: 0}
  m_Version: 2
--- !u!1 &1781585634
GameObject:
  m_ObjectHideFlags: 0
  m_CorrespondingSourceObject: {fileID: 0}
  m_PrefabInstance: {fileID: 0}
  m_PrefabAsset: {fileID: 0}
  serializedVersion: 6
  m_Component:
  - component: {fileID: 1781585635}
  - component: {fileID: 1781585636}
  m_Layer: 0
  m_Name: RemovingFog
  m_TagString: Untagged
  m_Icon: {fileID: 0}
  m_NavMeshLayer: 0
  m_StaticEditorFlags: 0
  m_IsActive: 1
--- !u!4 &1781585635
Transform:
  m_ObjectHideFlags: 0
  m_CorrespondingSourceObject: {fileID: 0}
  m_PrefabInstance: {fileID: 0}
  m_PrefabAsset: {fileID: 0}
  m_GameObject: {fileID: 1781585634}
  serializedVersion: 2
  m_LocalRotation: {x: -0, y: -0, z: -0, w: 1}
  m_LocalPosition: {x: 0, y: 0, z: -1.5}
  m_LocalScale: {x: 1, y: 1, z: 1}
  m_ConstrainProportionsScale: 0
  m_Children: []
  m_Father: {fileID: 434197847380694387}
  m_LocalEulerAnglesHint: {x: 0, y: 0, z: 0}
--- !u!114 &1781585636
MonoBehaviour:
  m_ObjectHideFlags: 0
  m_CorrespondingSourceObject: {fileID: 0}
  m_PrefabInstance: {fileID: 0}
  m_PrefabAsset: {fileID: 0}
  m_GameObject: {fileID: 1781585634}
  m_Enabled: 1
  m_EditorHideFlags: 0
  m_Script: {fileID: 11500000, guid: e1fbb15bf92b84f40a1eb030765b5afe, type: 3}
  m_Name: 
  m_EditorClassIdentifier: 
  parameters:
    albedo: {r: 0, g: 0, b: 0, a: 1}
    meanFreePath: 100000
    blendingMode: 2
    priority: 0
    anisotropy: 0
    volumeMask: {fileID: 0}
    textureScrollingSpeed: {x: 0, y: 0, z: 0}
    textureTiling: {x: 1, y: 1, z: 1}
    positiveFade: {x: 0.05, y: 0.025, z: 0.05}
    negativeFade: {x: 0.05, y: 0.025, z: 0.05}
    m_EditorUniformFade: 0.1
    m_EditorPositiveFade: {x: 0.05, y: 0.025, z: 0.05}
    m_EditorNegativeFade: {x: 0.05, y: 0.025, z: 0.05}
    m_EditorAdvancedFade: 0
    size: {x: 2, y: 4, z: 2}
    invertFade: 0
    distanceFadeStart: 10000
    distanceFadeEnd: 10000
    textureOffset: {x: 0, y: 0, z: 0}
    falloffMode: 0
    maskMode: 0
    materialMask: {fileID: 0}
  m_Version: 2
--- !u!1 &1869677418
GameObject:
  m_ObjectHideFlags: 0
  m_CorrespondingSourceObject: {fileID: 0}
  m_PrefabInstance: {fileID: 0}
  m_PrefabAsset: {fileID: 0}
  serializedVersion: 6
  m_Component:
  - component: {fileID: 1869677419}
  - component: {fileID: 1869677420}
  m_Layer: 0
  m_Name: TintingFog
  m_TagString: Untagged
  m_Icon: {fileID: 0}
  m_NavMeshLayer: 0
  m_StaticEditorFlags: 0
  m_IsActive: 1
--- !u!4 &1869677419
Transform:
  m_ObjectHideFlags: 0
  m_CorrespondingSourceObject: {fileID: 0}
  m_PrefabInstance: {fileID: 0}
  m_PrefabAsset: {fileID: 0}
  m_GameObject: {fileID: 1869677418}
  serializedVersion: 2
  m_LocalRotation: {x: -0, y: -0, z: -0, w: 1}
  m_LocalPosition: {x: 1.5, y: 0, z: 0}
  m_LocalScale: {x: 1, y: 1, z: 1}
  m_ConstrainProportionsScale: 0
  m_Children: []
  m_Father: {fileID: 434197847380694387}
  m_LocalEulerAnglesHint: {x: 0, y: 0, z: 0}
--- !u!114 &1869677420
MonoBehaviour:
  m_ObjectHideFlags: 0
  m_CorrespondingSourceObject: {fileID: 0}
  m_PrefabInstance: {fileID: 0}
  m_PrefabAsset: {fileID: 0}
  m_GameObject: {fileID: 1869677418}
  m_Enabled: 1
  m_EditorHideFlags: 0
  m_Script: {fileID: 11500000, guid: e1fbb15bf92b84f40a1eb030765b5afe, type: 3}
  m_Name: 
  m_EditorClassIdentifier: 
  parameters:
    albedo: {r: 0.9356513, g: 0, b: 1, a: 1}
    meanFreePath: 5
    blendingMode: 2
    priority: 0
    anisotropy: 0
    volumeMask: {fileID: 0}
    textureScrollingSpeed: {x: 0, y: 0, z: 0}
    textureTiling: {x: 1, y: 1, z: 1}
    positiveFade: {x: 0.05, y: 0.025, z: 0.05}
    negativeFade: {x: 0.05, y: 0.025, z: 0.05}
    m_EditorUniformFade: 0.1
    m_EditorPositiveFade: {x: 0.05, y: 0.025, z: 0.05}
    m_EditorNegativeFade: {x: 0.05, y: 0.025, z: 0.05}
    m_EditorAdvancedFade: 0
    size: {x: 2, y: 4, z: 2}
    invertFade: 0
    distanceFadeStart: 10000
    distanceFadeEnd: 10000
    textureOffset: {x: 0, y: 0, z: 0}
    falloffMode: 0
    maskMode: 0
    materialMask: {fileID: 0}
  m_Version: 2
--- !u!1 &2077644057
GameObject:
  m_ObjectHideFlags: 0
  m_CorrespondingSourceObject: {fileID: 0}
  m_PrefabInstance: {fileID: 0}
  m_PrefabAsset: {fileID: 0}
  serializedVersion: 6
  m_Component:
  - component: {fileID: 2077644058}
  - component: {fileID: 2077644059}
  m_Layer: 0
  m_Name: LighterValueFog
  m_TagString: Untagged
  m_Icon: {fileID: 0}
  m_NavMeshLayer: 0
  m_StaticEditorFlags: 0
  m_IsActive: 1
--- !u!4 &2077644058
Transform:
  m_ObjectHideFlags: 0
  m_CorrespondingSourceObject: {fileID: 0}
  m_PrefabInstance: {fileID: 0}
  m_PrefabAsset: {fileID: 0}
  m_GameObject: {fileID: 2077644057}
  serializedVersion: 2
  m_LocalRotation: {x: -0, y: -0, z: -0, w: 1}
  m_LocalPosition: {x: 0, y: 0, z: 1.5}
  m_LocalScale: {x: 1, y: 1, z: 1}
  m_ConstrainProportionsScale: 0
  m_Children: []
  m_Father: {fileID: 434197847380694387}
  m_LocalEulerAnglesHint: {x: 0, y: 0, z: 0}
--- !u!114 &2077644059
MonoBehaviour:
  m_ObjectHideFlags: 0
  m_CorrespondingSourceObject: {fileID: 0}
  m_PrefabInstance: {fileID: 0}
  m_PrefabAsset: {fileID: 0}
  m_GameObject: {fileID: 2077644057}
  m_Enabled: 1
  m_EditorHideFlags: 0
  m_Script: {fileID: 11500000, guid: e1fbb15bf92b84f40a1eb030765b5afe, type: 3}
  m_Name: 
  m_EditorClassIdentifier: 
  parameters:
    albedo: {r: 1, g: 0, b: 0, a: 1}
    meanFreePath: 1
    blendingMode: 4
    priority: 0
    anisotropy: 0
    volumeMask: {fileID: 0}
    textureScrollingSpeed: {x: 0, y: 0, z: 0}
    textureTiling: {x: 1, y: 1, z: 1}
    positiveFade: {x: 0.05, y: 0.025, z: 0.05}
    negativeFade: {x: 0.05, y: 0.025, z: 0.05}
    m_EditorUniformFade: 0.1
    m_EditorPositiveFade: {x: 0.05, y: 0.025, z: 0.05}
    m_EditorNegativeFade: {x: 0.05, y: 0.025, z: 0.05}
    m_EditorAdvancedFade: 0
    size: {x: 2, y: 4, z: 2}
    invertFade: 0
    distanceFadeStart: 10000
    distanceFadeEnd: 10000
    textureOffset: {x: 0, y: 0, z: 0}
    falloffMode: 0
    maskMode: 0
    materialMask: {fileID: 0}
  m_Version: 2
--- !u!1 &1860413291238107237
GameObject:
  m_ObjectHideFlags: 0
  m_CorrespondingSourceObject: {fileID: 0}
  m_PrefabInstance: {fileID: 0}
  m_PrefabAsset: {fileID: 0}
  serializedVersion: 6
  m_Component:
  - component: {fileID: 434197847380694387}
  - component: {fileID: 1429547074}
  m_Layer: 0
  m_Name: About Blending Modes
  m_TagString: Untagged
  m_Icon: {fileID: 0}
  m_NavMeshLayer: 0
  m_StaticEditorFlags: 0
  m_IsActive: 1
--- !u!4 &434197847380694387
Transform:
  m_ObjectHideFlags: 0
  m_CorrespondingSourceObject: {fileID: 0}
  m_PrefabInstance: {fileID: 0}
  m_PrefabAsset: {fileID: 0}
  m_GameObject: {fileID: 1860413291238107237}
  serializedVersion: 2
  m_LocalRotation: {x: 0, y: 0, z: 0, w: 1}
  m_LocalPosition: {x: -0.64275736, y: 1.4127592, z: 0.8758334}
  m_LocalScale: {x: 1, y: 1, z: 1}
  m_ConstrainProportionsScale: 0
  m_Children:
  - {fileID: 1781585635}
  - {fileID: 381186267}
  - {fileID: 1869677419}
  - {fileID: 2077644058}
  m_Father: {fileID: 0}
  m_LocalEulerAnglesHint: {x: 0, y: 0, z: 0}
--- !u!114 &1429547074
MonoBehaviour:
  m_ObjectHideFlags: 0
  m_CorrespondingSourceObject: {fileID: 0}
  m_PrefabInstance: {fileID: 0}
  m_PrefabAsset: {fileID: 0}
  m_GameObject: {fileID: 1860413291238107237}
  m_Enabled: 1
  m_EditorHideFlags: 0
  m_Script: {fileID: 11500000, guid: e1fbb15bf92b84f40a1eb030765b5afe, type: 3}
  m_Name: 
  m_EditorClassIdentifier: 
  parameters:
    albedo: {r: 1, g: 1, b: 1, a: 1}
    meanFreePath: 5
    blendingMode: 1
    priority: 0
    anisotropy: 0
    volumeMask: {fileID: 0}
    textureScrollingSpeed: {x: 0, y: 0, z: 0}
    textureTiling: {x: 1, y: 1, z: 1}
    positiveFade: {x: 0.025, y: 0.05, z: 0.025}
    negativeFade: {x: 0.025, y: 0.05, z: 0.025}
    m_EditorUniformFade: 0.1
    m_EditorPositiveFade: {x: 0.025, y: 0.05, z: 0.025}
    m_EditorNegativeFade: {x: 0.025, y: 0.05, z: 0.025}
    m_EditorAdvancedFade: 0
    size: {x: 4, y: 2, z: 4}
    invertFade: 0
    distanceFadeStart: 10000
    distanceFadeEnd: 10000
    textureOffset: {x: 0, y: 0, z: 0}
    falloffMode: 0
    maskMode: 0
    materialMask: {fileID: 0}
  m_Version: 2
